D:\projects\BoostBrain\practic\shop\view\src\main\java\ru\mitroshkinam\auth\AuthBean.java
D:\projects\BoostBrain\practic\shop\view\src\main\java\ru\mitroshkinam\OrderBean.java
D:\projects\BoostBrain\practic\shop\view\src\main\java\ru\mitroshkinam\auth\LoginFilter.java
